[
    {"Char":"uroboros", "Mood":"anger", "Text":"Time has stopped to wait one's trial to finish. And why one has not entered the doorway?"},
    {"Char":"uroboros", "Mood":"neutral", "Text":"One shall not make the Time wait..."}
]